[
    {"question": "from, by",                 "answer": "ā, ab"                       },
    {"question": "go away",                  "answer": "abeō, abīre, abiī"           },
    {"question": "throw away",               "answer": "abiciō, abicere, abiēcī"     },
    {"question": "be out, be absent",        "answer": "absum, abesse, āfuī"         },
    {"question": "happen",                   "answer": "accidō, accidere, accidī"    },
    {"question": "accept, take in, receive", "answer": "accipiō, accipere, accēpī"   },
    {"question": "running up",               "answer": "accurrēns, gen. accurrentis\n\nNotes:\n * currēns is run\n * a, ab is from" },
    {"question": "vinegar",                  "answer": "acētum, acētī, n."           },
    {"question": "to, at",                   "answer": "ad"                          },
    {"question": "approach, go up to",       "answer": "adeō, adīre, adiī"           }
]
